<?xml version="1.0" encoding="UTF-8"?>
<svg width="500px" height="500px" viewBox="0 0 500 500" version="1.1" xmlns="http://www.w3.org/2000/svg" xmlns:xlink="http://www.w3.org/1999/xlink">
    <!-- Generator: Sketch 46.2 (44496) - http://www.bohemiancoding.com/sketch -->
    <title>Slice</title>
    <desc>Created with Sketch.</desc>
    <defs>
        <path d="M0.139027778,39.2037037 C0.139027778,17.6354907 33.2348576,0.15037037 74.0590278,0.15037037 C114.883198,0.15037037 147.979028,17.6357593 147.979028,39.2037037 C147.979028,60.7716481 114.883198,78.257037 74.0590278,78.257037 C33.2348576,78.257037 0.139027778,60.7711111 0.139027778,39.2037037" id="path-1"></path>
        <radialGradient cx="30.0202546%" cy="82.4223047%" fx="30.0202546%" fy="82.4223047%" r="0.180844907%" gradientTransform="translate(0.300203,0.824223),scale(0.528319,1.000000),translate(-0.300203,-0.824223)" id="radialGradient-3">
            <stop stop-color="#AEB2D5" offset="0%"></stop>
            <stop stop-color="#AEB2D5" offset="30%"></stop>
            <stop stop-color="#484C89" offset="75%"></stop>
            <stop stop-color="#484C89" offset="100%"></stop>
        </radialGradient>
        <polygon id="path-4" points="0 87 154 87 154 0 0 0"></polygon>
        <polygon id="path-6" points="0 87 154 87 154 0 0 0"></polygon>
    </defs>
    <g id="Page-1" stroke="none" stroke-width="1" fill="none" fill-rule="evenodd">
        <g id="Group-2" transform="translate(173.000000, 250.000000)" fill-rule="nonzero">
            <g id="g33" transform="translate(0.000000, 2.000000)" fill="#6C78AF">
                <path d="M2.3654335,4.20182353 L7.98687167,4.20182353 C9.67594875,4.20182353 10.9162508,4.72402262 11.7078362,5.7681086 C12.4991104,6.81250679 12.7558792,8.26775566 12.478035,10.1340724 C12.3641233,10.8997149 12.1608817,11.6024027 11.8681608,12.2423665 C11.5753171,12.8823756 11.1886229,13.4671176 10.7079117,13.9960905 C10.1363192,14.6326697 9.49651375,15.0887602 8.78800208,15.3639955 C8.07952917,15.63919 7.17346833,15.77681 6.07006792,15.77681 L3.56618271,15.77681 L2.94318779,19.9630271 L0.0196666658,19.9630271 L2.3654335,4.20182353 L2.3654335,4.20182353 Z M4.91761167,6.69524887 L3.93373404,13.3062579 L5.71187167,13.3062579 C6.89051417,13.3062579 7.76403167,13.0449729 8.33274708,12.5217195 C8.90099583,11.9984208 9.27581792,11.1277376 9.45726458,9.90925339 C9.63214333,8.73423077 9.53045542,7.90499548 9.15311458,7.42085973 C8.7754775,6.93722624 8.03140667,6.69524887 6.92071833,6.69524887 L4.91761167,6.69524887 L4.91761167,6.69524887 Z" id="path66"></path>
                <path d="M15.7600817,0.0156153846 L18.6615467,0.0156153846 L18.0385512,4.20182353 L20.6197937,4.20182353 C22.2443717,4.20182353 23.3702875,4.53621719 23.9979575,5.20440724 C24.6258287,5.87301357 24.8293008,6.9501267 24.6080675,8.43666516 L23.5155521,15.77681 L20.5701467,15.77681 L21.6098883,8.79086878 C21.7282829,7.99667873 21.6709117,7.45658824 21.4380437,7.17028054 C21.2051633,6.88433937 20.7178954,6.741 19.9768467,6.741 L17.6610587,6.741 L16.3162992,15.77681 L13.4143287,15.77681 L15.7600817,0.0156153846" id="path68"></path>
                <path d="M27.7682392,4.20182353 L33.389635,4.20182353 C35.0790912,4.20182353 36.3190146,4.72402262 37.1106012,5.7681086 C37.9020404,6.81250679 38.1586862,8.26775566 37.8810096,10.1340724 C37.7670971,10.8997149 37.5636858,11.6024027 37.2713025,12.2423665 C36.9782487,12.8823756 36.5912183,13.4671176 36.1108429,13.9960905 C35.5390808,14.6326697 34.8993192,15.0887602 34.1908079,15.3639955 C33.4824612,15.63919 32.5764421,15.77681 31.4726629,15.77681 L28.9691483,15.77681 L28.3461533,19.9630271 L25.4227812,19.9630271 L27.7682392,4.20182353 L27.7682392,4.20182353 Z M30.3207542,6.69524887 L29.3368767,13.3062579 L31.1150142,13.3062579 C32.2936146,13.3062579 33.1670058,13.0449729 33.7353842,12.5217195 C34.3037592,11.9984208 34.6787921,11.1277376 34.8601962,9.90925339 C35.0349487,8.73423077 34.9334296,7.90499548 34.5558779,7.42085973 C34.1782408,6.93722624 33.43417,6.69524887 32.3238608,6.69524887 L30.3207542,6.69524887 L30.3207542,6.69524887 Z" id="path70"></path>
            </g>
            <g id="g65" transform="translate(40.000000, 0.000000)" fill="#F89C0E">
                <polyline id="path72" points="2.82325764 0.0157603738 8.36504157 0.0157603738 10.7995042 15.7551738 17.5332616 0.0157603738 23.0539169 0.0157603738 20.2530733 20.5268445 16.553186 20.5268445 19.0402586 4.55046654 12.2505648 20.5268445 8.24126369 20.5268445 5.69136787 4.38304598 3.86518725 20.5268445 0.0220628602 20.5268445 2.82325764 0.0157603738"></polyline>
                <path d="M29.7046753,17.207563 L32.50248,17.207563 L34.1060527,5.46355252 L37.5840711,5.46355252 L35.5821966,20.1224011 C35.3104364,22.1153376 34.7016287,23.5914766 33.7567675,24.5508426 C32.8118775,25.5097421 31.5010171,25.989532 29.8246422,25.989532 L23.0044526,25.989532 L23.421337,22.9381622 L29.6428295,22.9381622 C30.3104604,22.9381622 30.8487244,22.7535331 31.2576501,22.3846295 C31.6660256,22.0150748 31.9187927,21.4801794 32.0143785,20.7792292 L32.0490508,20.5268445 L28.9705046,20.5268445 C27.001323,20.5268445 25.6583816,20.0826284 24.9421733,19.1941914 C24.225464,18.3058127 24.0092829,16.8243084 24.2921064,14.7497465 L25.5606849,5.46355252 L28.9994604,5.46355252 L27.7730857,14.4427619 C27.6180811,15.5786411 27.6645886,16.323354 27.9141197,16.6770755 C28.1631497,17.0307921 28.7598264,17.207563 29.7046753,17.207563" id="path74"></path>
                <path d="M46.9512614,0.0157603738 L50.9560329,0.0157603738 L55.8095501,20.5268445 L51.6095617,20.5268445 L50.6277901,15.6446714 L42.827028,15.6446714 L40.5607113,20.5268445 L36.5554305,20.5268445 L46.9512614,0.0157603738 L46.9512614,0.0157603738 Z M48.251038,4.08856561 L44.5476478,11.9830404 L49.8952293,11.9830404 L48.251038,4.08856561 L48.251038,4.08856561 Z" id="path76"></path>
                <path d="M68.9216691,20.5268445 L62.2403328,20.5268445 C60.2213419,20.5268445 58.7387628,19.8475107 57.7920618,18.4885951 C56.8458782,17.1299226 56.5393226,15.2358202 56.8709081,12.8068176 C57.0070839,11.8109787 57.2498965,10.8964639 57.5998716,10.0636329 C57.9498262,9.2305686 58.4117931,8.4697843 58.9862365,7.78092037 C59.6691112,6.95273533 60.4362664,6.35943477 61.2872008,6.00106729 C62.1381311,5.64264636 63.2191599,5.46355252 64.5297698,5.46355252 L67.5137321,5.46355252 L68.2575739,0.0157603738 L71.7230138,0.0157603738 L68.9216691,20.5268445 L68.9216691,20.5268445 Z M65.8976466,17.2968718 L67.070898,8.70841084 L64.9673844,8.70841084 C63.5566591,8.70841084 62.5099904,9.04611439 61.8263313,9.72081196 C61.1437152,10.3959809 60.6940394,11.5202501 60.4792874,13.0933764 C60.2706912,14.6204318 60.393964,15.7026004 60.8491385,16.3403245 C61.3043049,16.9780389 62.1922236,17.2968718 63.5128947,17.2968718 L65.8976466,17.2968718 L65.8976466,17.2968718 Z" id="path78"></path>
                <path d="M74.0023772,5.46355252 L87.3585039,5.46355252 C89.2949844,5.46355252 90.6315523,5.8964015 91.3676367,6.76108374 C92.1032529,7.62623738 92.3388994,9.03075252 92.0735784,10.9746389 L90.7688287,20.5268445 L87.2646469,20.5268445 L88.4984177,11.4911933 C88.6499646,10.3834135 88.6034857,9.65270168 88.3594658,9.29868374 C88.1144643,8.94496224 87.5373927,8.76795327 86.6272612,8.76795327 L84.6761898,8.76795327 L83.0701984,20.5268445 L79.5136941,20.5268445 L81.1196855,8.76795327 L77.0550393,8.76795327 L75.4490479,20.5268445 L71.9448702,20.5268445 L74.0023772,5.46355252" id="path80"></path>
                <path d="M99.817821,3.75181458 L96.1702563,3.75181458 L96.6804145,0.0157603738 L100.327979,0.0157603738 L99.817821,3.75181458 Z M97.5266345,20.5268445 L93.8790657,20.5268445 L95.9360717,5.46355252 L99.5836364,5.46355252 L97.5266345,20.5268445 L97.5266345,20.5268445 Z" id="path82"></path>
                <path d="M102.592247,5.46355252 L109.136233,5.46355252 C111.113968,5.46355252 112.468137,5.88943738 113.19816,6.74018168 C113.928216,7.5914071 114.158844,9.00289121 113.889548,10.9746389 L112.585295,20.5268445 L109.106776,20.5268445 L110.345023,11.4632688 C110.498697,10.3366815 110.44568,9.60590168 110.185965,9.27099738 C109.926221,8.93567028 109.33625,8.76795327 108.416558,8.76795327 L105.619255,8.76795327 L104.013267,20.5268445 L100.535249,20.5268445 L102.592247,5.46355252" id="path84"></path>
            </g>
        </g>
        <g id="logo_docker" transform="translate(136.000000, 289.000000)">
            <g id="Group">
                <g transform="translate(4.037913, 4.205174)" fill="#099CEC">
                    <rect id="Rectangle-path" fill-rule="nonzero" x="114.008208" y="29.7172111" width="29.3728448" height="25.2310458"></rect>
                    <rect id="Rectangle-path" fill-rule="nonzero" x="80.4392426" y="29.7172111" width="29.3728448" height="25.2310458"></rect>
                    <rect id="Rectangle-path" fill-rule="nonzero" x="114.008208" y="0.28099091" width="29.3728448" height="25.2310458"></rect>
                    <path d="M253.906872,66.722745 C248.28407,62.9380881 233.723531,61.2560184 223.107346,64.1996404 C222.519889,53.5605494 217.064932,44.6035281 207.078165,36.8239556 L203.385579,34.3429028 L200.909868,38.0855079 C196.094003,45.9099079 193.930386,55.0845577 194.74157,64.2416921 C195.226469,70.1147968 197.365527,75.7291796 200.909868,80.4316132 C193.877771,84.8071384 185.677568,86.9203116 177.411592,86.4870642 L0.712949455,86.4870642 C-2.43414106,105.158038 2.93689342,176.14138 84.6353632,176.14138 C145.269307,176.14138 195.119221,148.807747 217.904156,91.4912217 C225.415212,91.4912217 245.220902,92.8368774 254.913941,74.0397483 C255.165708,73.7033343 257.389652,69.0776426 257.389652,69.0776426 L253.906872,66.722745 Z" id="Shape"></path>
                </g>
                <rect id="Rectangle-path" fill="#FFFFFF" fill-rule="nonzero" x="11.4646552" y="134.384" width="111.071315" height="59.4611647"></rect>
                <path d="M67.9024784,142.415883 C57.9040585,148.118068 46.592849,151.104176 35.0888147,151.078542 C29.1938201,151.083322 23.3241603,150.305611 17.6329526,148.765696 L21.157694,154.694992 C37.9533102,158.011024 55.3784814,155.207437 70.2942672,146.789264 C69.4550431,145.359505 68.6577802,143.887694 67.9024784,142.415883 Z" id="Shape" fill="#026FB6"></path>
                <ellipse id="Oval" fill="#FFFFFF" fill-rule="nonzero" cx="86.7010991" cy="130.515239" rx="8.60204741" ry="8.66265908"></ellipse>
                <path d="M88.0018966,128.076238 C88.0051632,127.315939 88.3620347,126.600656 88.9670043,126.141858 C88.2801945,125.783452 87.5174048,125.595949 86.7430603,125.595185 C84.736666,125.578145 82.9183593,126.776259 82.1387344,128.629056 C81.3591096,130.481854 81.7723121,132.623004 83.185048,134.050889 C84.5977838,135.478774 86.7307305,135.911075 88.586107,135.145564 C90.4414835,134.380054 91.6524495,132.568087 91.6525216,130.557291 C91.6525216,130.557291 91.6525216,130.557291 91.6525216,130.262929 C91.3088901,130.468262 90.9193518,130.58393 90.519569,130.599343 C89.8483885,130.610843 89.2013194,130.348712 88.7266538,129.873022 C88.2519882,129.397332 87.9904209,128.748867 88.0018966,128.076238 Z" id="Shape" fill="#4D5C64" fill-rule="nonzero"></path>
                <path d="M257.231444,70.4653501 C251.692565,66.722745 236.502608,64.9986235 226.347996,67.9422455 L224.082091,71.138178 C191.016659,139.766623 149.642909,168.740274 92.8693966,170.043878 C31.1864224,170.043878 15.7446983,137.28557 11.422694,92.8368774 L1.72965517,92.8368774 C0.554741379,111.71811 5.25439655,180.2204 87.5403233,180.2204 C148.25819,180.2204 198.233987,152.97087 221.312651,95.696396 C228.823707,95.696396 249.80431,95.696396 259.077737,77.025422 L260.965991,73.0305064 L257.231444,70.4653501 Z" id="Shape" fill="#000000" fill-rule="nonzero" opacity="0.05"></path>
                <g fill-rule="nonzero" fill="#066DA5">
                    <rect id="Rectangle-path" x="122.242241" y="8.69133953" width="4.19612069" height="16.8206972"></rect>
                    <rect id="Rectangle-path" x="130.634483" y="8.69133953" width="4.19612069" height="16.8206972"></rect>
                    <rect id="Rectangle-path" x="139.026724" y="8.69133953" width="4.19612069" height="16.8206972"></rect>
                    <rect id="Rectangle-path" x="122.242241" y="38.1275597" width="4.19612069" height="16.8206972"></rect>
                    <rect id="Rectangle-path" x="130.634483" y="38.1275597" width="4.19612069" height="16.8206972"></rect>
                    <rect id="Rectangle-path" x="139.026724" y="38.1275597" width="4.19612069" height="16.8206972"></rect>
                    <rect id="Rectangle-path" x="88.6732759" y="38.1275597" width="4.19612069" height="16.8206972"></rect>
                    <rect id="Rectangle-path" x="97.0655172" y="38.1275597" width="4.19612069" height="16.8206972"></rect>
                    <rect id="Rectangle-path" x="105.457759" y="38.1275597" width="4.19612069" height="16.8206972"></rect>
                    <path d="M258.448319,68.4468664 C252.531789,64.2416921 239.02028,62.9380881 228.404095,64.9565718 C226.585184,54.2594136 220.532725,44.7517151 211.619612,38.5901289 L205.787004,34.6793168 L201.968534,40.524509 C196.841265,48.8053906 194.529834,58.5284416 195.380625,68.2366077 C195.859985,73.678771 197.598403,78.934075 200.457931,83.585494 C195.963086,86.7116866 190.653567,88.4512361 185.184052,88.5896514 L185.184052,59.1534312 L151.615086,59.1534312 L151.615086,0.28099091 L113.85,0.28099091 L113.85,29.7172111 L46.712069,29.7172111 L46.712069,59.1534312 L13.1431034,59.1534312 L13.1431034,88.5896514 L0.554741379,88.5896514 L0.554741379,90.6922385 C-0.00345290008,98.066103 0.462568742,105.481928 1.93946121,112.727352 C3.43144639,123.520721 6.87246158,133.951538 12.0940733,143.509228 C25.7734267,168.151549 50.6564224,182.617349 88.0018966,182.617349 C151.573125,182.617349 200.248125,153.181129 222.949138,97.9671901 C229.371403,98.3621853 235.809694,97.5199756 241.915603,95.4861372 C250.009802,92.7284523 256.69033,86.8798238 260.504418,79.2121127 C260.756185,78.833647 261.091875,78.1187674 261.847177,76.6049046 L262.686401,74.8807831 L263.064052,74.0818 L263.987198,72.1474198 L258.448319,68.4468664 Z M118.046121,4.48616522 L147.418966,4.48616522 L147.418966,29.7172111 L118.046121,29.7172111 L118.046121,4.48616522 Z M118.046121,33.9223854 L147.418966,33.9223854 L147.418966,59.1534312 L118.046121,59.1534312 L118.046121,33.9223854 Z M113.85,59.1534312 L84.4771552,59.1534312 L84.4771552,33.9223854 L113.85,33.9223854 L113.85,59.1534312 Z M257.357328,74.5023175 L256.602026,76.0582319 L256.182414,76.8572151 C252.920766,83.3991199 247.200545,88.3754085 240.279116,90.6922385 C234.599077,92.5481113 228.615579,93.2905237 222.655409,92.8789292 L219.676164,92.8789292 L219.046746,94.4768954 C197.436724,148.723644 150.314289,177.57114 88.0438578,177.57114 C52.4607543,177.57114 29.2981681,164.07253 16.4160776,141.028175 C11.4956187,132.003592 8.25382581,122.157487 6.84892241,111.970421 C5.88729072,105.667581 5.6900388,99.2713017 6.26146552,92.9209809 L182.036961,92.9209809 C190.360031,93.0466948 198.534752,90.7060209 205.535237,86.192702 L207.549375,84.6367875 L205.912888,82.6603556 C202.671828,78.3467817 200.721707,73.198438 200.290086,67.8160903 C199.553073,59.2092382 201.613838,50.5943589 206.164655,43.2578723 L207.255647,41.6178544 L208.850172,42.6691479 C218.417328,50.1543582 223.36875,58.5226551 223.872284,68.194556 L223.872284,71.2643332 L226.809569,70.4653501 C236.418685,67.858142 250.47569,69.1196943 255.678879,72.609989 L257.567134,73.913593 L257.357328,74.5023175 Z" id="Shape"></path>
                </g>
            </g>
            <rect id="Rectangle-path" fill="#099CEC" fill-rule="nonzero" x="51" y="34" width="29" height="26"></rect>
            <rect id="Rectangle-path" fill="#066DA5" fill-rule="nonzero" x="56" y="38" width="5" height="17"></rect>
            <rect id="Rectangle-path" fill="#066DA5" fill-rule="nonzero" x="64" y="38" width="5" height="17"></rect>
            <rect id="Rectangle-path" fill="#066DA5" fill-rule="nonzero" x="72" y="38" width="5" height="17"></rect>
            <rect id="Rectangle-path" fill="#099CEC" fill-rule="nonzero" x="118" y="64" width="29" height="26"></rect>
            <rect id="Rectangle-path" fill="#066DA5" fill-rule="nonzero" x="122" y="68" width="5" height="17"></rect>
            <rect id="Rectangle-path" fill="#066DA5" fill-rule="nonzero" x="131" y="68" width="5" height="17"></rect>
            <rect id="Rectangle-path" fill="#066DA5" fill-rule="nonzero" x="139" y="68" width="5" height="17"></rect>
            <rect id="Rectangle-path" fill="#099CEC" fill-rule="nonzero" x="85" y="64" width="29" height="26"></rect>
            <rect id="Rectangle-path" fill="#066DA5" fill-rule="nonzero" x="88" y="68" width="5" height="17"></rect>
            <rect id="Rectangle-path" fill="#066DA5" fill-rule="nonzero" x="98" y="68" width="5" height="17"></rect>
            <rect id="Rectangle-path" fill="#066DA5" fill-rule="nonzero" x="105" y="68" width="5" height="17"></rect>
            <rect id="Rectangle-path" fill="#099CEC" fill-rule="nonzero" x="51" y="64" width="29" height="26"></rect>
            <rect id="Rectangle-path" fill="#066DA5" fill-rule="nonzero" x="56" y="68" width="5" height="17"></rect>
            <rect id="Rectangle-path" fill="#066DA5" fill-rule="nonzero" x="64" y="68" width="5" height="17"></rect>
            <rect id="Rectangle-path" fill="#066DA5" fill-rule="nonzero" x="72" y="68" width="5" height="17"></rect>
            <rect id="Rectangle-path" fill="#099CEC" fill-rule="nonzero" x="17" y="64" width="29" height="26"></rect>
            <rect id="Rectangle-path" fill="#066DA5" fill-rule="nonzero" x="22" y="68" width="5" height="17"></rect>
            <rect id="Rectangle-path" fill="#066DA5" fill-rule="nonzero" x="30" y="68" width="5" height="17"></rect>
            <rect id="Rectangle-path" fill="#066DA5" fill-rule="nonzero" x="38" y="68" width="5" height="17"></rect>
            <rect id="Rectangle-path" fill="#099CEC" fill-rule="nonzero" x="152" y="64" width="29" height="26"></rect>
            <rect id="Rectangle-path" fill="#066DA5" fill-rule="nonzero" x="156" y="68" width="5" height="17"></rect>
            <rect id="Rectangle-path" fill="#066DA5" fill-rule="nonzero" x="164" y="68" width="5" height="17"></rect>
            <rect id="Rectangle-path" fill="#066DA5" fill-rule="nonzero" x="173" y="68" width="5" height="17"></rect>
        </g>
        <g id="PHP-logo" transform="translate(49.000000, 284.000000)">
            <g id="g3438" transform="translate(77.000000, 43.500000) scale(-1, 1) rotate(-180.000000) translate(-77.000000, -43.500000) ">
                <g id="g3440" transform="translate(2.940972, 4.296296)">
                    <g id="g3442-Clipped">
                        <mask id="mask-2" fill="white">
                            <use xlink:href="#path-1"></use>
                        </mask>
                        <g id="path3446"></g>
                        <g id="g3442" mask="url(#mask-2)" fill-rule="nonzero" fill="url(#radialGradient-3)">
                            <g id="g3448">
                                <g id="g3450">
                                    <path d="M0.139027778,39.2037037 C0.139027778,17.6354907 33.2348576,0.15037037 74.0590278,0.15037037 C114.883198,0.15037037 147.979028,17.6357593 147.979028,39.2037037 C147.979028,60.7716481 114.883198,78.257037 74.0590278,78.257037 C33.2348576,78.257037 0.139027778,60.7711111 0.139027778,39.2037037" id="path3462"></path>
                                </g>
                            </g>
                        </g>
                    </g>
                </g>
                <g id="g3464">
                    <g id="g3466-Clipped">
                        <mask id="mask-5" fill="white">
                            <use xlink:href="#path-4"></use>
                        </mask>
                        <g id="path3470"></g>
                        <g id="g3466" mask="url(#mask-5)">
                            <g transform="translate(5.881944, 7.250000)" id="g3472">
                                <g transform="translate(0.000000, 0.096667)">
                                    <path d="M71.1180556,0 C110.347951,0 142.150556,16.1862963 142.150556,36.1533333 C142.150556,56.1203704 110.347951,72.3074722 71.1180556,72.3074722 C31.8881597,72.3074722 0.0855555556,56.1206389 0.0855555556,36.1541389 C0.0855555556,16.1862963 31.8881597,0 71.1180556,0" id="path3474" fill="#777BB3" fill-rule="nonzero"></path>
                                </g>
                            </g>
                        </g>
                    </g>
                </g>
                <g id="g3476">
                    <g id="g3478-Clipped">
                        <mask id="mask-7" fill="white">
                            <use xlink:href="#path-6"></use>
                        </mask>
                        <g id="path3482"></g>
                        <g id="g3478" mask="url(#mask-7)">
                            <g transform="translate(24.597222, 19.870370)">
                                <g id="g3484" transform="translate(0.729896, 0.888796)">
                                    <path d="M17.9131944,18.2592593 C21.1389062,18.2592593 23.5470278,18.856713 25.0704514,20.0341667 C26.5783681,21.2000741 27.6192049,23.2196019 28.1648889,26.0366296 C28.6736771,28.6697222 28.4798403,30.5082685 27.5889931,31.5004444 C26.6780937,32.5138333 24.7087118,33.0277778 21.7356562,33.0277778 L16.580934,33.0277778 L13.7228437,18.2592593 L17.9131944,18.2592593 Z M1.05260069,0.0671296296 C0.8133125,0.0671296296 0.586055556,0.174537037 0.433927083,0.360351852 C0.28153125,0.54562963 0.220038194,0.789981481 0.265489583,1.02627778 L7.83929514,40.1628519 C7.91415625,40.541463 8.24301042,40.8148148 8.62801042,40.8148148 L24.9504063,40.8148148 C30.081066,40.8148148 33.8989826,39.4158333 36.2998854,36.6562685 C38.7141563,33.8824722 39.4574201,30.0045278 38.5157743,25.1314537 C38.1321111,23.1457593 37.4717292,21.3018426 36.5533438,19.6509907 C35.6336215,17.9982593 34.4187326,16.4690463 32.9412951,15.1049722 C31.1689583,13.442037 29.1685625,12.2363889 26.9927778,11.5275 C24.8538889,10.8266667 22.1059514,10.4722222 18.8259653,10.4722222 L12.2162639,10.4722222 L10.3286944,0.719092593 C10.2554375,0.340481481 9.92551389,0.0671296296 9.54158333,0.0671296296 L1.05286806,0.0671296296 L1.05260069,0.0671296296 Z" id="path3486" fill="#000000" fill-rule="nonzero"></path>
                                </g>
                                <g id="g3488" transform="translate(0.058819, 0.083241)">
                                    <path d="M17.9131944,33.0277778 L22.407,33.0277778 C25.9949861,33.0277778 27.241691,32.2369907 27.665191,31.7657407 C28.367816,30.9832778 28.5004271,29.3335 28.0488542,26.9949722 C27.5414028,24.3769167 26.6008264,22.5206481 25.2527917,21.4782593 C23.8726736,20.4111667 21.6289792,19.8703704 18.5848056,19.8703704 L15.3668472,19.8703704 L17.9131944,33.0277778 Z M25.6212153,42.4259259 L9.29775,42.4259259 C8.52988889,42.4259259 7.87004167,41.8792222 7.72299306,41.1222685 L0.149454861,1.98569444 C0.0558784722,1.51310185 0.181538194,1.02439815 0.48365625,0.653305556 C0.788447917,0.281944444 1.24296181,0.0671296296 1.72153819,0.0671296296 L10.2102535,0.0671296296 C10.9775799,0.0671296296 11.6379618,0.613833333 11.7850104,1.37078704 L13.5471875,10.4722222 L19.4959722,10.4722222 C22.859375,10.4722222 25.6926007,10.8406296 27.9125,11.5669722 C30.1957639,12.3121111 32.2972222,13.5754907 34.1569861,15.3219352 C35.6943125,16.7450833 36.9616042,18.3400833 37.9214306,20.0639722 C38.8812569,21.7878611 39.5710486,23.7158241 39.9712882,25.7834167 C40.9645347,30.9148056 40.1576389,35.0231389 37.573059,37.9929537 C35.0154826,40.9356481 30.9938368,42.4259259 25.6220174,42.4259259 L25.6212153,42.4259259 Z M13.4215278,18.2592593 L18.5842708,18.2592593 C22.0070278,18.2592593 24.556316,18.9063889 26.2313333,20.2017222 C27.9066181,21.4970556 29.0364861,23.6591667 29.6236111,26.6880556 C30.1850694,29.5969167 29.9294722,31.6494722 28.8562847,32.8451852 C27.7814931,34.0408981 25.6319097,34.6388889 22.4067326,34.6388889 L16.5908264,34.6388889 L13.4209931,18.2592593 L13.4215278,18.2592593 Z M25.6212153,40.8148148 C30.5321042,40.8148148 34.1144757,39.5205556 36.3664583,36.932037 C38.6176389,34.3429815 39.2956667,30.7292593 38.3973333,26.0903333 C38.0275729,24.179287 37.4022153,22.432037 36.5217951,20.8488519 C35.6421771,19.2651296 34.4898507,17.8167407 33.0674896,16.5031481 C31.3724201,14.9108333 29.4901979,13.775 27.4181493,13.100213 C25.3458333,12.4208611 22.7069792,12.0833333 19.4986458,12.0833333 L12.2264236,12.0833333 L10.2126597,1.67824074 L1.72394444,1.67824074 L9.29775,40.8148148 L25.6212153,40.8148148 L25.6212153,40.8148148 Z" id="path3490" fill="#FFFFFF" fill-rule="nonzero"></path>
                                </g>
                                <g id="g3492" transform="translate(37.050903, 11.361019)">
                                    <path d="M21.65625,0 C21.4166944,0 21.1897049,0.107407407 21.0375764,0.293222222 C20.8851806,0.4785 20.8231528,0.722851852 20.8691389,0.959148148 L24.2191736,18.2759074 C24.5378681,19.922463 24.4592639,21.1044815 23.998066,21.6039259 C23.7149306,21.9092315 22.8673958,22.4212963 20.3595486,22.4212963 L14.2904514,22.4212963 L10.0781771,0.651962963 C10.0046528,0.273351852 9.67446181,0 9.29079861,0 L0.868923611,0 C0.629368056,0 0.402378472,0.107407407 0.249982639,0.293222222 C0.0975868056,0.4785 0.03609375,0.722851852 0.0815451389,0.959148148 L7.65535069,40.0957222 C7.72860764,40.4743333 8.05906597,40.7476852 8.44272917,40.7476852 L16.8646042,40.7476852 C17.1041597,40.7476852 17.3311493,40.6402778 17.4835451,40.455 C17.635941,40.2689167 17.697434,40.0248333 17.6519826,39.788537 L15.8243021,30.3425926 L22.3540625,30.3425926 C27.3280486,30.3425926 30.7010764,29.4618519 32.6656458,27.6498889 C34.6681806,25.8014074 35.2930035,22.8460926 34.5230035,18.863963 L30.999184,0.6525 C30.9256597,0.273351852 30.5960035,0 30.2118056,0 L21.65625,0 Z" id="path3494" fill="#000000" fill-rule="nonzero"></path>
                                </g>
                                <g id="g3496" transform="translate(36.270208, 10.488333)">
                                    <path d="M17.6458333,42.4259259 L9.22395833,42.4259259 C8.45582986,42.4259259 7.79571528,41.8792222 7.64920139,41.1222685 L0.0753958333,1.98569444 C-0.0160416667,1.51310185 0.107479167,1.02439815 0.412270833,0.653305556 C0.7170625,0.281944444 1.17104167,0.0671296296 1.65015278,0.0671296296 L10.0720278,0.0671296296 C10.8398889,0.0671296296 11.5002708,0.613833333 11.6467847,1.37078704 L15.7328646,22.4884259 L21.1415799,22.4884259 C23.6446146,22.4884259 24.1699792,21.9513889 24.1911007,21.9282963 C24.3434965,21.7645 24.5440174,21.0045926 24.2151632,19.3021852 L20.8651285,1.98542593 C20.7742257,1.51283333 20.8972118,1.02466667 21.2020035,0.653574074 C21.5067951,0.281944444 21.961309,0.0671296296 22.4398854,0.0671296296 L30.995441,0.0671296296 C31.7627674,0.0671296296 32.4231493,0.613833333 32.5701979,1.37078704 L36.0910764,19.5830556 C36.9182917,23.8578704 36.2108542,27.0650556 33.9896181,29.115463 C31.8699792,31.0702778 28.3194236,32.0208333 23.1347569,32.0208333 L17.5784583,32.0208333 L19.2205903,40.5073611 C19.3114931,40.9799537 19.1885069,41.4686574 18.8837153,41.839213 C18.5789236,42.2111111 18.1249444,42.4259259 17.6458333,42.4259259 M17.6458333,40.8148148 L15.6326042,30.4097222 L23.1347569,30.4097222 C27.8558194,30.4097222 31.1120104,29.5821481 32.9041319,27.9291481 C34.6962535,26.2750741 35.2328472,23.5952593 34.5168542,19.8902407 L30.9930347,1.67824074 L22.4374792,1.67824074 L25.7875139,18.994463 C26.1690382,20.9643148 26.028941,22.3079815 25.3669549,23.0243889 C24.7038993,23.7407963 23.2949063,24.099537 21.1399757,24.099537 L14.4078229,24.099537 L10.0685521,1.67824074 L1.64667708,1.67824074 L9.22395833,40.8148148 L17.6458333,40.8148148" id="path3498" fill="#FFFFFF" fill-rule="nonzero"></path>
                                </g>
                                <g id="g3500" transform="translate(66.987326, 0.888796)">
                                    <path d="M17.9131944,18.2592593 C21.1389062,18.2592593 23.5470278,18.856713 25.0704514,20.0341667 C26.5783681,21.199537 27.6192049,23.2193333 28.1651562,26.0366296 C28.6739444,28.6697222 28.4801076,30.5082685 27.5889931,31.5004444 C26.6780937,32.5138333 24.7087118,33.0277778 21.7356562,33.0277778 L16.580934,33.0277778 L13.7228437,18.2592593 L17.9131944,18.2592593 Z M1.05286806,0.0671296296 C0.813579861,0.0671296296 0.586322917,0.174537037 0.434194444,0.360351852 C0.281798611,0.54562963 0.219770833,0.789981481 0.265756944,1.02627778 L7.83929514,40.1628519 C7.91415625,40.541463 8.24301042,40.8148148 8.62801042,40.8148148 L24.9504063,40.8148148 C30.081066,40.8148148 33.8989826,39.4158333 36.2998854,36.6562685 C38.7141563,33.8824722 39.4574201,30.0050648 38.516309,25.1314537 C38.1329132,23.1457593 37.4727986,21.3018426 36.5538785,19.6509907 C35.6341563,17.9982593 34.4198021,16.4690463 32.9418299,15.1049722 C31.1689583,13.442037 29.1685625,12.2363889 26.9927778,11.5275 C24.8538889,10.8266667 22.1059514,10.4722222 18.8259653,10.4722222 L12.2157292,10.4722222 L10.3292292,0.719092593 C10.2557049,0.340481481 9.92551389,0.0671296296 9.54158333,0.0671296296 L1.05286806,0.0671296296 Z" id="path3502" fill="#000000" fill-rule="nonzero"></path>
                                </g>
                                <g id="g3504" transform="translate(66.316250, 0.083241)">
                                    <path d="M17.9131944,33.0277778 L22.407,33.0277778 C25.9949861,33.0277778 27.241691,32.2369907 27.665191,31.7657407 C28.3683507,30.9832778 28.5006944,29.3335 28.0488542,26.9952407 C27.5414028,24.3771852 26.600559,22.5206481 25.2527917,21.4782593 C23.8726736,20.4111667 21.6289792,19.8703704 18.5848056,19.8703704 L15.3671146,19.8703704 L17.9131944,33.0277778 Z M25.6212153,42.4259259 L9.29801736,42.4259259 C8.53015625,42.4259259 7.87030903,41.8792222 7.72326042,41.1222685 L0.149722222,1.98569444 C0.0582847222,1.51310185 0.181805556,1.02439815 0.486597222,0.653305556 C0.791388889,0.281944444 1.24510069,0.0671296296 1.72447917,0.0671296296 L10.2131944,0.0671296296 C10.9805208,0.0671296296 11.6409028,0.613833333 11.7879514,1.37078704 L13.5485243,10.4722222 L19.497309,10.4722222 C22.8607118,10.4722222 25.6928681,10.8406296 27.9133021,11.5669722 C30.196566,12.3121111 32.2980243,13.5754907 34.1577882,15.3224722 C35.6951146,16.7429352 36.9597326,18.3379352 37.919559,20.0631667 C38.8796528,21.7889352 39.5694444,23.7134074 39.9704861,25.7831481 C40.9637326,30.9131944 40.1568368,35.0209907 37.5722569,37.9918796 C35.0154826,40.934037 30.9930347,42.4259259 25.62175,42.4259259 L25.6212153,42.4259259 Z M13.4215278,18.2592593 L18.5842708,18.2592593 C22.0070278,18.2592593 24.556316,18.9063889 26.2313333,20.2017222 C27.9071528,21.4970556 29.0364861,23.6591667 29.6236111,26.6880556 C30.1856042,29.5969167 29.9297396,31.6494722 28.8562847,32.8451852 C27.7814931,34.0408981 25.6319097,34.6388889 22.4067326,34.6388889 L16.5908264,34.6388889 L13.4215278,18.2592593 L13.4215278,18.2592593 Z M25.6212153,40.8148148 C30.5321042,40.8148148 34.1144757,39.5205556 36.3664583,36.932037 C38.6176389,34.3429815 39.2956667,30.7292593 38.3973333,26.0903333 C38.0275729,24.179287 37.4022153,22.432037 36.5217951,20.8488519 C35.6421771,19.2651296 34.4898507,17.8167407 33.0674896,16.5031481 C31.3724201,14.9108333 29.4901979,13.775 27.4181493,13.100213 C25.3458333,12.4208611 22.7069792,12.0833333 19.4986458,12.0833333 L12.2264236,12.0833333 L10.2131944,1.67824074 L1.72447917,1.67824074 L9.29775,40.8148148 L25.6212153,40.8148148 L25.6212153,40.8148148 Z" id="path3506" fill="#FFFFFF" fill-rule="nonzero"></path>
                                </g>
                            </g>
                        </g>
                    </g>
                </g>
            </g>
        </g>
        <path d="M307.139274,45.9076828 C296.134998,45.9076828 286.227474,50.5615574 279.308614,57.9896477 L270.476736,66.7840818 L237.801581,34 L221.43541,50.4349306 L254.021382,83.1645493 L230.307454,106.772274 L230.286349,106.891412 L222.363325,98.9336681 C215.279033,90.7887068 204.870448,85.6174325 193.804221,85.6174325 C172.92578,85.6174325 156,102.452667 156,123.221501 C156,143.990336 172.92578,160.82489 193.804221,160.82489 C205.704415,160.82489 215.441742,156.223436 223.249032,147.145113 L230.26116,140.490399 L262.82807,172.787035 L279.192879,156.01103 L246.716514,123.392379 L270.476055,99.6879825 L277.39015,106.632712 C284.324668,115.348856 295.072286,120.943581 307.139274,120.943581 C328.049712,120.943581 345,104.14579 345,83.4259723 C345.000681,62.7047933 328.04835,45.9076828 307.139274,45.9076828 Z M204.538904,132.743699 L204.538904,132.729403 C201.881103,135.699005 197.997882,137.574579 193.669425,137.574579 C185.658579,137.574579 179.165212,131.160864 179.165212,123.248733 C179.165212,115.337963 185.658579,108.922887 193.669425,108.922887 C197.880105,108.922887 201.670059,110.696343 204.320371,113.528426 L204.320371,113.525702 L214.156412,123.476117 L204.538904,132.743699 Z M307.038517,97.7511374 C302.826474,97.7511374 299.037202,95.9783624 296.38689,93.1462796 L296.38689,93.1490028 L286.550168,83.1985887 L296.169037,73.9310062 L296.169037,73.9446219 C298.825477,70.9750197 302.709379,69.1008072 307.038517,69.1008072 C315.049363,69.1008072 321.542729,75.5138409 321.542729,83.4266531 C321.542049,91.3367421 315.049363,97.7511374 307.038517,97.7511374 Z" id="Shape" fill="#00AAA5" fill-rule="nonzero"></path>
        <g id="database" transform="translate(327.000000, 271.000000)" fill-rule="nonzero">
            <g id="Group">
                <path d="M71.7134,11.7735849 L71.7134,11.7735849 C70.63152,5.20686792 55.17588,0 36.26,0 C17.34412,0 1.88848,5.20686792 0.8066,11.7735849 L0.8066,11.7735849 L0.74,11.7735849 L0.74,12.509434 L0.74,29.4339623 L0.74,30.1698113 L0.74,30.9056604 L0.74,47.0943396 L0.74,47.8301887 L0.74,48.5660377 L0.74,66.2264151 L0.8066,66.2264151 C1.88848,72.7916604 17.3456,78 36.26,78 C55.1744,78 70.63152,72.7916604 71.7134,66.2264151 L71.78,66.2264151 L71.78,48.5660377 L71.78,47.8301887 L71.78,47.0943396 L71.78,30.9056604 L71.78,30.1698113 L71.78,29.4339623 L71.78,12.509434 L71.78,11.7735849 L71.7134,11.7735849 Z" id="Shape" fill="#545E73"></path>
                <g transform="translate(0.000000, 47.094340)" id="Shape">
                    <path d="M36.26,13.245283 C16.6426,13.245283 0.74,7.644 0.74,0.735849057 L0.74,19.1320755 L0.8066,19.1320755 C1.88848,25.6973208 17.3456,30.9056604 36.26,30.9056604 C55.1744,30.9056604 70.63152,25.6973208 71.7134,19.1320755 L71.78,19.1320755 L71.78,0.735849057 C71.78,7.644 55.8774,13.245283 36.26,13.245283 Z" fill="#2F5572"></path>
                    <path d="M0.74,0 L0.74,0.735849057 C0.74,0.488603774 0.76664,0.244301887 0.8066,0 L0.74,0 Z" fill="#38454F"></path>
                    <path d="M71.7134,0 C71.75336,0.244301887 71.78,0.488603774 71.78,0.735849057 L71.78,0 L71.7134,0 Z" fill="#38454F"></path>
                </g>
                <g transform="translate(0.000000, 29.433962)" id="Shape" fill="#556080">
                    <path d="M36.26,13.245283 C16.6426,13.245283 0.74,7.644 0.74,0.735849057 L0.74,19.1320755 L0.8066,19.1320755 C1.88848,25.6973208 17.3456,30.9056604 36.26,30.9056604 C55.1744,30.9056604 70.63152,25.6973208 71.7134,19.1320755 L71.78,19.1320755 L71.78,0.735849057 C71.78,7.644 55.8774,13.245283 36.26,13.245283 Z"></path>
                    <path d="M0.74,0 L0.74,0.735849057 C0.74,0.488603774 0.76664,0.244301887 0.8066,0 L0.74,0 Z"></path>
                    <path d="M71.7134,0 C71.75336,0.244301887 71.78,0.488603774 71.78,0.735849057 L71.78,0 L71.7134,0 Z"></path>
                </g>
                <ellipse id="Oval" fill="#91BAE1" cx="36.26" cy="12.509434" rx="35.52" ry="12.509434"></ellipse>
                <g transform="translate(0.000000, 11.773585)" id="Shape" fill="#8697CB">
                    <path d="M36.26,13.245283 C16.6426,13.245283 0.74,7.644 0.74,0.735849057 L0.74,19.1320755 L0.8066,19.1320755 C1.88848,25.6973208 17.3456,30.9056604 36.26,30.9056604 C55.1744,30.9056604 70.63152,25.6973208 71.7134,19.1320755 L71.78,19.1320755 L71.78,0.735849057 C71.78,7.644 55.8774,13.245283 36.26,13.245283 Z"></path>
                    <path d="M0.74,0 L0.74,0.735849057 C0.74,0.488603774 0.76664,0.244301887 0.8066,0 L0.74,0 Z"></path>
                    <path d="M71.7134,0 C71.75336,0.244301887 71.78,0.488603774 71.78,0.735849057 L71.78,0 L71.7134,0 Z"></path>
                </g>
            </g>
        </g>
    </g>
</svg>