<?xml version="1.0" encoding="utf-8"?>
<!-- Generator: Adobe Illustrator 24.0.0, SVG Export Plug-In . SVG Version: 6.00 Build 0)  -->
<svg version="1.1" id="Calque_1" xmlns="http://www.w3.org/2000/svg" xmlns:xlink="http://www.w3.org/1999/xlink" x="0px" y="0px"
	 viewBox="0 0 500 500" style="enable-background:new 0 0 500 500;" xml:space="preserve">
<style type="text/css">
	.st0{fill:#099CEC;}
	.st1{fill-rule:evenodd;clip-rule:evenodd;fill:#099CEC;}
	.st2{fill:#FFFFFF;}
	.st3{fill-rule:evenodd;clip-rule:evenodd;fill:#026FB6;}
	.st4{fill:#4D5C64;}
	.st5{opacity:5.000000e-02;enable-background:new    ;}
	.st6{fill:#066DA5;}
	.st7{fill:#00AAA5;}
	.st8{fill:#919191;}
	.st9{fill:none;}
	.st10{font-family:'MyriadPro-Regular';}
	.st11{font-size:85.0394px;}
</style>
<title>Slice</title>
<desc>Created with Sketch.</desc>
<g id="Page-1">
	<g id="logo_docker" transform="translate(136.000000, 289.000000)">
		<g id="Group">
			<g transform="translate(4.037913, 4.205174)">
				<rect id="Rectangle-path" x="114" y="29.7" class="st0" width="29.4" height="25.2"/>
				<rect id="Rectangle-path_1_" x="80.4" y="29.7" class="st0" width="29.4" height="25.2"/>
				<rect id="Rectangle-path_2_" x="114" y="0.3" class="st0" width="29.4" height="25.2"/>
				<path id="Shape" class="st1" d="M253.9,66.7c-5.6-3.8-20.2-5.5-30.8-2.5c-0.6-10.6-6-19.6-16-27.4l-3.7-2.5l-2.5,3.7
					c-4.8,7.8-7,17-6.2,26.2c0.5,5.9,2.6,11.5,6.2,16.2c-7,4.4-15.2,6.5-23.5,6.1H0.7c-3.1,18.7,2.2,89.7,83.9,89.7
					c60.6,0,110.5-27.3,133.3-84.7c7.5,0,27.3,1.3,37-17.5c0.3-0.3,2.5-5,2.5-5L253.9,66.7z"/>
			</g>
			<rect id="Rectangle-path_3_" x="11.5" y="134.4" class="st2" width="111.1" height="59.5"/>
			<path id="Shape_1_" class="st3" d="M67.9,142.4c-10,5.7-21.3,8.7-32.8,8.7c-5.9,0-11.8-0.8-17.5-2.3l3.5,5.9
				c16.8,3.3,34.2,0.5,49.1-7.9C69.5,145.4,68.7,143.9,67.9,142.4z"/>
			<ellipse id="Oval" class="st2" cx="86.7" cy="130.5" rx="8.6" ry="8.7"/>
			<path id="Shape_2_" class="st4" d="M88,128.1c0-0.8,0.4-1.5,1-1.9c-0.7-0.4-1.4-0.5-2.2-0.5c-2,0-3.8,1.2-4.6,3s-0.4,4,1,5.4
				c1.4,1.4,3.5,1.9,5.4,1.1c1.9-0.8,3.1-2.6,3.1-4.6c0,0,0,0,0-0.3c-0.3,0.2-0.7,0.3-1.1,0.3c-0.7,0-1.3-0.3-1.8-0.7
				C88.3,129.4,88,128.7,88,128.1z"/>
			<path id="Shape_3_" class="st5" d="M257.2,70.5c-5.5-3.7-20.7-5.5-30.9-2.5l-2.3,3.2C191,139.8,149.6,168.7,92.9,170
				c-61.7,0-77.1-32.8-81.4-77.2H1.7c-1.2,18.9,3.5,87.4,85.8,87.4c60.7,0,110.7-27.2,133.8-84.5c7.5,0,28.5,0,37.8-18.7l1.9-4
				L257.2,70.5z"/>
			<g>
				<rect id="Rectangle-path_4_" x="122.2" y="8.7" class="st6" width="4.2" height="16.8"/>
				<rect id="Rectangle-path_5_" x="130.6" y="8.7" class="st6" width="4.2" height="16.8"/>
				<rect id="Rectangle-path_6_" x="139" y="8.7" class="st6" width="4.2" height="16.8"/>
				<rect id="Rectangle-path_7_" x="122.2" y="38.1" class="st6" width="4.2" height="16.8"/>
				<rect id="Rectangle-path_8_" x="130.6" y="38.1" class="st6" width="4.2" height="16.8"/>
				<rect id="Rectangle-path_9_" x="139" y="38.1" class="st6" width="4.2" height="16.8"/>
				<rect id="Rectangle-path_10_" x="88.7" y="38.1" class="st6" width="4.2" height="16.8"/>
				<rect id="Rectangle-path_11_" x="97.1" y="38.1" class="st6" width="4.2" height="16.8"/>
				<rect id="Rectangle-path_12_" x="105.5" y="38.1" class="st6" width="4.2" height="16.8"/>
				<path id="Shape_4_" class="st6" d="M258.4,68.4c-5.9-4.2-19.4-5.5-30-3.5c-1.8-10.7-7.9-20.2-16.8-26.4l-5.8-3.9l-3.8,5.8
					c-5.1,8.3-7.4,18-6.6,27.7c0.5,5.4,2.2,10.7,5.1,15.3c-4.5,3.1-9.8,4.9-15.3,5V59.2h-33.6V0.3h-37.8v29.4H46.7v29.4H13.1v29.4
					H0.6v2.1c-0.6,7.4-0.1,14.8,1.4,22c1.5,10.8,4.9,21.2,10.2,30.8c13.7,24.6,38.6,39.1,75.9,39.1c63.6,0,112.2-29.4,134.9-84.7
					c6.4,0.4,12.9-0.4,19-2.5c8.1-2.8,14.8-8.6,18.6-16.3c0.3-0.4,0.6-1.1,1.3-2.6l0.8-1.7l0.4-0.8l0.9-1.9L258.4,68.4z M118,4.5
					h29.4v25.2H118V4.5z M118,33.9h29.4v25.2H118V33.9z M113.8,59.2H84.5V33.9h29.4V59.2z M257.4,74.5l-0.8,1.6l-0.4,0.8
					c-3.3,6.5-9,11.5-15.9,13.8c-5.7,1.9-11.7,2.6-17.6,2.2h-3l-0.6,1.6c-21.6,54.2-68.7,83.1-131,83.1c-35.6,0-58.7-13.5-71.6-36.5
					c-4.9-9-8.2-18.9-9.6-29.1c-1-6.3-1.2-12.7-0.6-19H182c8.3,0.1,16.5-2.2,23.5-6.7l2-1.6l-1.6-2c-3.2-4.3-5.2-9.5-5.6-14.8
					c-0.7-8.6,1.3-17.2,5.9-24.6l1.1-1.6l1.6,1.1c9.6,7.5,14.5,15.9,15,25.5v3.1l2.9-0.8c9.6-2.6,23.7-1.3,28.9,2.1l1.9,1.3
					L257.4,74.5z"/>
			</g>
		</g>
		<rect id="Rectangle-path_13_" x="51" y="34" class="st0" width="29" height="26"/>
		<rect id="Rectangle-path_14_" x="56" y="38" class="st6" width="5" height="17"/>
		<rect id="Rectangle-path_15_" x="64" y="38" class="st6" width="5" height="17"/>
		<rect id="Rectangle-path_16_" x="72" y="38" class="st6" width="5" height="17"/>
		<rect id="Rectangle-path_17_" x="118" y="64" class="st0" width="29" height="26"/>
		<rect id="Rectangle-path_18_" x="122" y="68" class="st6" width="5" height="17"/>
		<rect id="Rectangle-path_19_" x="131" y="68" class="st6" width="5" height="17"/>
		<rect id="Rectangle-path_20_" x="139" y="68" class="st6" width="5" height="17"/>
		<rect id="Rectangle-path_21_" x="85" y="64" class="st0" width="29" height="26"/>
		<rect id="Rectangle-path_22_" x="88" y="68" class="st6" width="5" height="17"/>
		<rect id="Rectangle-path_23_" x="98" y="68" class="st6" width="5" height="17"/>
		<rect id="Rectangle-path_24_" x="105" y="68" class="st6" width="5" height="17"/>
		<rect id="Rectangle-path_25_" x="51" y="64" class="st0" width="29" height="26"/>
		<rect id="Rectangle-path_26_" x="56" y="68" class="st6" width="5" height="17"/>
		<rect id="Rectangle-path_27_" x="64" y="68" class="st6" width="5" height="17"/>
		<rect id="Rectangle-path_28_" x="72" y="68" class="st6" width="5" height="17"/>
		<rect id="Rectangle-path_29_" x="17" y="64" class="st0" width="29" height="26"/>
		<rect id="Rectangle-path_30_" x="22" y="68" class="st6" width="5" height="17"/>
		<rect id="Rectangle-path_31_" x="30" y="68" class="st6" width="5" height="17"/>
		<rect id="Rectangle-path_32_" x="38" y="68" class="st6" width="5" height="17"/>
		<rect id="Rectangle-path_33_" x="152" y="64" class="st0" width="29" height="26"/>
		<rect id="Rectangle-path_34_" x="156" y="68" class="st6" width="5" height="17"/>
		<rect id="Rectangle-path_35_" x="164" y="68" class="st6" width="5" height="17"/>
		<rect id="Rectangle-path_36_" x="173" y="68" class="st6" width="5" height="17"/>
	</g>
	<path id="Shape_5_" class="st7" d="M110.6,288.4c-5.8,0-11,2.5-14.7,6.4l-4.7,4.6l-17.2-17.3l-8.6,8.7l17.2,17.2l-12.5,12.4l0,0.1
		l-4.2-4.2c-3.7-4.3-9.2-7-15-7c-11,0-19.9,8.9-19.9,19.8S39.9,349,50.9,349c6.3,0,11.4-2.4,15.5-7.2l3.7-3.5l17.2,17l8.6-8.8
		l-17.1-17.2l12.5-12.5l3.6,3.7c3.7,4.6,9.3,7.5,15.7,7.5c11,0,19.9-8.8,19.9-19.8C130.6,297.3,121.7,288.4,110.6,288.4z
		 M56.6,334.2L56.6,334.2c-1.4,1.6-3.4,2.5-5.7,2.5c-4.2,0-7.6-3.4-7.6-7.5c0-4.2,3.4-7.5,7.6-7.5c2.2,0,4.2,0.9,5.6,2.4v0l5.2,5.2
		L56.6,334.2z M110.6,315.7c-2.2,0-4.2-0.9-5.6-2.4v0l-5.2-5.2l5.1-4.9v0c1.4-1.6,3.4-2.6,5.7-2.6c4.2,0,7.6,3.4,7.6,7.5
		C118.2,312.4,114.8,315.7,110.6,315.7z"/>
	<path class="st8" d="M195.1,222.2h-32.6c-6,0-10.9,4.9-10.9,10.9v32.6c0,6,4.9,10.9,10.9,10.9h32.6c6,0,10.9-4.9,10.9-10.9V233
		C206,227,201.1,222.2,195.1,222.2z M187,195h65.2v16.3h16.3V195h65.2v16.3H350v-19.6c0-7.2-5.9-13-13-13h-68.5v-21.7h13.6
		c6,0,10.9-4.9,10.9-10.9v-32.6c0-6-4.9-10.9-10.9-10.9h-43.5c-6,0-10.9,4.9-10.9,10.9v32.6c0,6,4.9,10.9,10.9,10.9h13.6v21.7h-68.5
		c-7.2,0-13,5.9-13,13v19.6H187V195z M276.6,222.2H244c-6,0-10.9,4.9-10.9,10.9v32.6c0,6,4.9,10.9,10.9,10.9h32.6
		c6,0,10.9-4.9,10.9-10.9V233C287.5,227,282.6,222.2,276.6,222.2z M358.2,222.2h-32.6c-6,0-10.9,4.9-10.9,10.9v32.6
		c0,6,4.9,10.9,10.9,10.9h32.6c6,0,10.9-4.9,10.9-10.9V233C369,227,364.2,222.2,358.2,222.2z"/>
	<rect x="165.9" y="38.1" class="st9" width="193" height="72"/>
	<text transform="matrix(1 0 0 1 197.0023 98.5232)" class="st0 st10 st11">301</text>
</g>
</svg>
