<?xml version="1.0" encoding="utf-8"?>
<!-- Generator: Adobe Illustrator 24.0.0, SVG Export Plug-In . SVG Version: 6.00 Build 0)  -->
<svg version="1.1" id="Calque_1" xmlns="http://www.w3.org/2000/svg" xmlns:xlink="http://www.w3.org/1999/xlink" x="0px" y="0px"
	 viewBox="0 0 500 500" style="enable-background:new 0 0 500 500;" xml:space="preserve">
<style type="text/css">
	.st0{fill:none;}
	.st1{fill:#0D535F;}
	.st2{font-family:'Poppins-SemiBoldItalic';}
	.st3{font-size:20px;}
</style>
<title>Slice</title>
<desc>Created with Sketch.</desc>
<rect x="64.1" y="254" class="st0" width="385" height="43"/>
<text transform="matrix(1 0 0 1 79.2958 268.7998)" class="st1 st2 st3">Outil campagnes de remunération</text>
<g>
	<g>
		<path class="st1" d="M139.9,179.7c-6.5,0-10.9,3.7-10.9,9.1v0.1c0,6,4.8,7.6,10.6,8.9c3.8,0.9,4.9,1.6,4.9,3v0.1
			c0,1.4-1.3,2.2-3.4,2.2c-3.3,0-6.4-1.1-9.2-3.4l-4.2,5.1c3.4,3,8,4.6,13.1,4.6c7,0,11.3-3.6,11.3-9.3V200c0-5.4-4.2-7.5-10.5-8.9
			c-4-0.9-5.1-1.5-5.1-3v-0.1c0-1,0.8-2,3-2c2.6,0,5.4,1,7.9,2.8l3.7-5.4C148.3,180.9,144.6,179.7,139.9,179.7"/>
		<polygon class="st1" points="124.9,180.3 117.2,180.3 110.2,192.1 103.1,180.3 95.5,180.3 95.5,208.7 102.3,208.7 102.3,190.9 
			110.1,203.1 117.9,190.8 117.9,208.7 124.9,208.7 		"/>
		<g>
			<path class="st1" d="M80.3,179.7c-4.6,0.1-6.9,2.8-7.6,3.8c0,0.1-0.2,0.4-0.2,0.4c-1.5,2.4-2.2,5.2-2,8.3l0,0.1
				c0.5,7.5,6.3,12.9,13.7,12.9c0.3,0,0.6,0,1,0c2.9-0.2,5.3-0.9,7.3-2.3l-5.9-4.2c-1.7,2.1-3.5,3.5-6.4,3.5c-4,0-6.8-3.3-6.8-7.6
				v-0.1c0-4.2,2.8-7.5,6.8-7.5c2.7,0,4.6,1.3,6.2,3.3l5.9-4.6c-1.7-2.4-4-4.3-7.1-5.2c0,0-0.1,0-0.1,0c-0.4-0.1-0.8-0.2-1.2-0.3
				C82.7,179.8,81.5,179.7,80.3,179.7"/>
			<g>
				<path class="st1" d="M68.4,191.7c0-1.6,0.2-3.1,0.7-4.6c0.4-1.7,1.2-3.3,2.1-4.7l0,0c-3.8,2.7-6.1,7-6.1,12.1v0.1
					c0,8.5,6.6,14.7,14.7,14.7c4,0,7-1.1,9.3-2.9l0,0c-1.2,0.3-2.5,0.5-3.9,0.6c-0.4,0-0.7,0-1,0c-1.9,0-3.8-0.3-5.5-1
					C72.7,204,68.4,198.4,68.4,191.7"/>
			</g>
		</g>
	</g>
	<path class="st1" d="M169.1,182.4v10.9h16v2h-16v13.4H167v-28.3h19.7v2L169.1,182.4L169.1,182.4z"/>
	<path class="st1" d="M200.4,186.9v1.9c-4.8,0-8.2,3.3-8.2,8v11.9h-2v-21.3h2v4.7C193.2,189,196.5,186.9,200.4,186.9z"/>
	<path class="st1" d="M220.5,195.7v13h-2v-3.4c-1.6,2.6-5.1,3.9-8.1,3.9c-4.5,0-7.7-2.7-7.7-6.8c0-4.2,3.5-7.1,8.5-7.1
		c2.4,0,5,0.6,7.3,1.4v-1c0-3.3-1.6-7-6.5-7c-2.1,0-4.5,0.8-6.4,1.9l-0.8-1.7c2.6-1.4,5.3-2.1,7.5-2.1
		C217.4,186.9,220.5,190.5,220.5,195.7z M218.4,202v-3.6c-2.1-0.7-4.6-1.3-7.1-1.3c-4,0-6.8,2.1-6.8,5.2c0,3,2.6,5,6,5
		C213.7,207.3,217.6,205.5,218.4,202z"/>
	<path class="st1" d="M243.4,194.8v13.9h-2v-13.6c0-3.7-2.6-6.4-6.2-6.4c-3.8,0-6.7,2.7-6.7,6.3v13.6h-2v-21.3h2v3.7
		c1.1-2.5,3.8-4.2,7-4.2C240.1,186.9,243.4,190.2,243.4,194.8z"/>
	<path class="st1" d="M247.5,198c0-6.4,4.6-11.1,10.8-11.1c2.8,0,5.5,1.2,7.4,3.1l-1.4,1.4c-1.5-1.6-3.7-2.6-6-2.6
		c-5,0-8.7,4-8.7,9.2c0,5.3,3.7,9.3,8.7,9.3c2.3,0,4.5-1,6.1-2.7l1.4,1.4c-1.9,2-4.6,3.2-7.5,3.2C252.1,209.2,247.5,204.4,247.5,198
		z"/>
	<path class="st1" d="M270.3,181.4c0-0.8,0.7-1.5,1.5-1.5c0.8,0,1.5,0.7,1.5,1.5c0,0.8-0.7,1.5-1.5,1.5
		C271,182.9,270.3,182.2,270.3,181.4z M270.8,187.4h2v21.3h-2V187.4z"/>
	<path class="st1" d="M276.7,206l1.2-1.5c2.4,1.8,5.2,2.8,7.7,2.8c3.1,0,5.5-1.7,5.5-3.8c0-2.4-2-3.6-5.9-4.8
		c-5.1-1.6-7.1-3.3-7.1-6.1c0-3.3,3.2-5.7,7.2-5.7c2.6,0,5.3,0.9,7.6,2.4l-1.1,1.6c-2.1-1.3-4.4-2.1-6.5-2.1c-2.8,0-5.2,1.5-5.2,3.6
		s1.7,3.2,6.1,4.6c4.5,1.4,6.9,3,6.9,6.4c0,3.3-3.4,5.9-7.5,5.9C282.6,209.2,279.3,208,276.7,206z"/>
	<path class="st1" d="M327.9,206.7v2h-18.1v-28.3h2.1v26.3C311.9,206.7,327.9,206.7,327.9,206.7z"/>
	<path class="st1" d="M347.7,204.5l1.3,1.4c-1.8,2-5.5,3.3-8.8,3.3c-5.7,0-10.6-4.9-10.6-11.2c0-6.3,4.7-11.1,10.5-11.1
		c6.2,0,10.1,4.8,10.1,12h-18.6c0.4,4.7,4,8.4,8.5,8.4C343.1,207.3,346.1,206.2,347.7,204.5z M331.7,197h16.5
		c-0.3-4.8-3.3-8.2-8.1-8.2C335.7,188.8,332.2,192.2,331.7,197z"/>
	<path class="st1" d="M358.4,187.4h5.7v1.9h-5.7v19.4h-2v-19.4h-3.6v-1.9h3.6v-2.9c0-3.2,1.9-5.4,4.6-5.4c1.5,0,2.8,0.5,4,1.4
		l-1,1.5c-0.7-0.6-1.7-1-2.8-1c-1.6,0-2.7,1.5-2.7,3.5L358.4,187.4L358.4,187.4z"/>
	<path class="st1" d="M383.9,204.5l1.3,1.4c-1.8,2-5.5,3.3-8.8,3.3c-5.7,0-10.6-4.9-10.6-11.2c0-6.3,4.7-11.1,10.5-11.1
		c6.2,0,10.1,4.8,10.1,12h-18.6c0.4,4.7,4,8.4,8.5,8.4C379.3,207.3,382.3,206.2,383.9,204.5z M367.9,197h16.5
		c-0.3-4.8-3.3-8.2-8.1-8.2C371.9,188.8,368.3,192.2,367.9,197z"/>
	<path class="st1" d="M411.3,198c0,6.2-4.3,11.2-9.7,11.2c-3.6,0-6.6-1.8-8.2-4.8v4.3h-2v-28.8h2v11.8c1.6-3,4.6-4.8,8.2-4.8
		C406.9,186.9,411.3,191.8,411.3,198z M409.2,198c0-5.1-3.5-9.2-8-9.2c-4.5,0-7.8,3.8-7.8,9.2c0,5.4,3.3,9.3,7.8,9.3
		C405.6,207.3,409.2,203.2,409.2,198z"/>
	<path class="st1" d="M413.1,187.4h2.2l8.1,18.4l8-18.4h2.2l-9.5,21.3h-1.6L413.1,187.4z"/>
	<path class="st1" d="M448,186.9v1.9c-4.8,0-8.2,3.3-8.2,8v11.9h-2v-21.3h2v4.7C440.8,189,444.1,186.9,448,186.9z"/>
	<path class="st1" d="M467.5,204.5l1.3,1.4c-1.8,2-5.5,3.3-8.8,3.3c-5.7,0-10.6-4.9-10.6-11.2c0-6.3,4.7-11.1,10.5-11.1
		c6.2,0,10.1,4.8,10.1,12h-18.6c0.4,4.7,4,8.4,8.5,8.4C462.9,207.3,465.9,206.2,467.5,204.5z M451.5,197h16.5
		c-0.3-4.8-3.3-8.2-8.1-8.2C455.5,188.8,452,192.2,451.5,197z"/>
</g>
</svg>
